{
  "project_info": {
    "project_number": "342136073250",
    "firebase_url": "https://actortemplateapp-10e30.firebaseio.com",
    "project_id": "actortemplateapp-10e30",
    "storage_bucket": "actortemplateapp-10e30.appspot.com"
  },
  "client": [
    {
      "client_info": {
        "mobilesdk_app_id": "1:342136073250:android:0e7dda260d2fb0fe",
        "android_client_info": {
          "package_name": "com.hu.fed.actortemplateapp"
        }
      },
      "oauth_client": [
        {
          "client_id": "342136073250-e1kh71fiuh97mvolftf4k08oqvcv5g7i.apps.googleusercontent.com",
          "client_type": 1,
          "android_info": {
            "package_name": "com.hu.fed.actortemplateapp",
            "certificate_hash": "8f8b8bd295da3128da5c416ce0ada6d579ee5683"
          }
        },
        {
          "client_id": "342136073250-8tk9ah2ndjfuu3frct4eb7bdg9p2obm2.apps.googleusercontent.com",
          "client_type": 1,
          "android_info": {
            "package_name": "com.hu.fed.actortemplateapp",
            "certificate_hash": "0c3c8174c73f06125d70dfcd38b09905d591fa6e"
          }
        },
        {
          "client_id": "342136073250-a7ph6g9oihg64fgnpjech8ddg784p3kp.apps.googleusercontent.com",
          "client_type": 3
        }
      ],
      "api_key": [
        {
          "current_key": "AIzaSyDzEN6KJr-HRsBT1Kjy-evSXSgOj_ZcHxg"
        }
      ],
      "services": {
        "analytics_service": {
          "status": 1
        },
        "appinvite_service": {
          "status": 2,
          "other_platform_oauth_client": [
            {
              "client_id": "342136073250-a7ph6g9oihg64fgnpjech8ddg784p3kp.apps.googleusercontent.com",
              "client_type": 3
            }
          ]
        },
        "ads_service": {
          "status": 2
        }
      }
    }
  ],
  "configuration_version": "1"
}